{
  "body": null,
  "headers": {
    "Host": "localhost:3000",
    "User-Agent": "curl/7.68.0",
    "Accept": "*/*"
  },
  "httpMethod": "GET",
  "isBase64Encoded": false,
  "multiValueHeaders": {
    "Host": [ "localhost:3000" ],
    "User-Agent": [ "curl/7.68.0" ],
    "Accept": [ "*/*" ]
  },
  "multiValueQueryStringParameters": null,
  "path": "/pads",
  "pathParameters": null,
  "queryStringParameters": null,
  "requestContext": {
    "accountId": "offlineContext_accountId",
    "apiId": "offlineContext_apiId",
    "authorizer": {
      "claims": "none",
      "principalId": "offlineContext_authorizer_principalId"
    },
    "domainName": "offlineContext_domainName",
    "domainPrefix": "offlineContext_domainPrefix",
    "extendedRequestId": "ckb3yo4gwywbhgg28nce",
    "httpMethod": "GET",
    "identity": {
      "accessKey": null,
      "accountId": "offlineContext_accountId",
      "apiKey": "offlineContext_apiKey",
      "caller": "offlineContext_caller",
      "cognitoAuthenticationProvider": "cognito-idp.eu-central-1.amazonaws.com/eu-central-1_skiPiN1AB,cognito-idp.eu-central-1.amazonaws.com/eu-central-1_skiPyN8AP:CognitoSignIn:917283dd-a4c1-4c1e-b680-88a74dfd5950",
      "cognitoAuthenticationType": "offlineContext_cognitoAuthenticationType",
      "cognitoIdentityId": "offlineContext_cognitoIdentityId",
      "cognitoIdentityPoolId": "offlineContext_cognitoIdentityPoolId",
      "principalOrgId": null,
      "sourceIp": "127.0.0.1",
      "user": "offlineContext_user",
      "userAgent": "curl/7.68.0",
      "userArn": "offlineContext_userArn"
    },
    "path": "/dev/pads",
    "protocol": "HTTP/1.1",
    "requestId": "ckb3yo4gwywb51827jxw",
    "requestTime": "06/Jun/2020:20:34:38 +0200",
    "requestTimeEpoch": 1591475733,
    "resourceId": "offlineContext_resourceId",
    "resourcePath": "/pads",
    "stage": "dev"
  },
  "resource": "/pads",
  "stageVariables": null
}